Practical 7
…
8: Use the LDA function from the topicmodels package to train an LDA model with 5 topics with the Gibbs sampling method.

# An LDA topic model with 5 topics; if it takes a lot of time for you run the code with k = 2
out_lda <- LDA(dtm, k = 5, method= "Gibbs", control = list(seed = 321))
out_lda

## A LDA_Gibbs topic model with 5 topics.

9: The tidy() method is originally from the broom package (Robinson 2017), for tidying model objects. The tidytext package provides this method for extracting the per-topic-per-word probabilities, called beta, from the LDA model. Use this function and check the beta probabilities for each term and topic.

lda_topics <- tidy(out_lda, matrix = "beta")
lda_topics

## # A tibble: 154,280 x 3
##    topic term            beta
##    <int> <chr>          <dbl>
##  1     1 accounts 0.000919   
##  2     2 accounts 0.00000106 
##  3     3 accounts 0.000103   
##  4     4 accounts 0.00000126 
##  5     5 accounts 0.000000907
##  6     1 adjust   0.0000532  
##  7     2 adjust   0.00000106 
##  8     3 adjust   0.000000924
##  9     4 adjust   0.00000126 
## 10     5 adjust   0.000000907
## # ... with 154,270 more rows
…
11: Use the code below to save the terms and topics in a wide format.

beta_wide <- lda_topics %>%
  mutate(topic = paste0("topic", topic)) %>%
  pivot_wider(names_from = topic, values_from = beta) %>% 
  mutate(log_ratio21 = log2(topic2 / topic1)) %>% 
  mutate(log_ratio31 = log2(topic3 / topic1))%>% 
  mutate(log_ratio41 = log2(topic4 / topic1))%>% 
  mutate(log_ratio51 = log2(topic5 / topic1))

beta_wide

## # A tibble: 30,856 x 10
##    term          topic1   topic2  topic3  topic4  topic5 log_ratio21 log_ratio31
##    <chr>          <dbl>    <dbl>   <dbl>   <dbl>   <dbl>       <dbl>       <dbl>
##  1 accounts     9.19e-4  1.06e-6 1.03e-4 1.26e-6 9.07e-7     -9.76       -3.16  
##  2 adjust       5.32e-5  1.06e-6 9.24e-7 1.26e-6 9.07e-7     -5.65       -5.85  
##  3 advert       1.04e-6  1.06e-6 6.56e-5 7.71e-5 9.07e-7      0.0220      5.98  
##  4 advertising  1.78e-4  1.06e-6 2.87e-4 1.26e-6 9.07e-7     -7.40        0.689 
##  5 alexander    1.04e-6  1.06e-6 1.02e-5 3.93e-4 9.07e-7      0.0220      3.29  
##  6 already      6.89e-4  3.61e-4 1.97e-3 5.57e-4 1.04e-3     -0.933       1.51  
##  7 also         5.13e-3  2.19e-3 5.06e-3 6.64e-3 3.49e-3     -1.23       -0.0214
##  8 amount       6.27e-4  1.06e-6 5.56e-4 1.26e-6 3.72e-5     -9.21       -0.174 
##  9 analysts     2.81e-3  1.06e-6 1.30e-4 1.26e-6 9.07e-7    -11.4        -4.43  
## 10 aol          1.04e-6  1.06e-6 2.60e-4 1.26e-6 9.07e-7      0.0220      7.96  
## # ... with 30,846 more rows, and 2 more variables: log_ratio41 <dbl>,
## #   log_ratio51 <dbl>
…
## # A tibble: 5 x 3
##   document topic  gamma
##   <chr>    <int>  <dbl>
## 1 2225         1 0.0300
## 2 2225         2 0.186 
## 3 2225         3 0.522 
## 4 2225         4 0.164 
## 5 2225         5 0.0985

tidy(dtm) %>%
  filter(document == 2225) %>%
  arrange(desc(count))

## # A tibble: 766 x 3
##    document term    count
##    <chr>    <chr>   <dbl>
##  1 2225     gaming     23
##  2 2225     game       22
##  3 2225     games      22
##  4 2225     online     22
##  5 2225     playing    20
##  6 2225     time       20
##  7 2225     hours      19
##  8 2225     can        15
##  9 2225     people     15
## 10 2225     play       15
## # ... with 756 more rows
…
